srun: Job step aborted: Waiting up to 32 seconds for job step to finish.
slurmstepd-west3: error: *** STEP 75289.2 ON west3 CANCELLED AT 2020-01-13T16:11:06 DUE TO TIME LIMIT ***
slurmstepd-west3: error: *** JOB 75289 ON west3 CANCELLED AT 2020-01-13T16:11:06 DUE TO TIME LIMIT ***
srun: got SIGCONT
[mpiexec@west3] HYDU_sock_write (utils/sock/sock.c:289): write error (Bad file descriptor)
[mpiexec@west3] HYD_pmcd_pmiserv_send_signal (pm/pmiserv/pmiserv_cb.c:178): unable to write data to proxy
[mpiexec@west3] ui_cmd_cb (pm/pmiserv/pmiserv_pmci.c:77): unable to send signal downstream
[mpiexec@west3] HYDT_dmxu_poll_wait_for_event (tools/demux/demux_poll.c:77): callback returned error status
[mpiexec@west3] HYDT_bscu_wait_for_completion (tools/bootstrap/utils/bscu_wait.c:60): error waiting for event
[mpiexec@west3] HYDT_bsci_wait_for_completion (tools/bootstrap/src/bsci_wait.c:22): launcher returned error waiting for completion
[mpiexec@west3] HYD_pmci_wait_for_completion (pm/pmiserv/pmiserv_pmci.c:215): launcher returned error waiting for completion
[mpiexec@west3] main (ui/mpich/mpiexec.c:336): process manager error waiting for completion
