west9: 2019-11-01T01:30:46,909219745+01:00
west10: 2019-11-01T01:30:46,937220480+01:00
west9: 2019-11-01T01:30:46,909295123+01:00
west9: 2019-11-01T01:30:46,909253074+01:00
west9: 2019-11-01T01:30:46,909397687+01:00
west10: 2019-11-01T01:30:46,937232854+01:00
west10: 2019-11-01T01:30:46,937487607+01:00
west10: 2019-11-01T01:30:46,937561864+01:00
